<?xml version="1.0" encoding="iso-8859-1"?>
<!-- Generator: Adobe Illustrator 18.1.1, SVG Export Plug-In . SVG Version: 6.00 Build 0)  -->
<svg version="1.1" id="Capa_1" xmlns="http://www.w3.org/2000/svg" xmlns:xlink="http://www.w3.org/1999/xlink" x="0px" y="0px"
	 viewBox="0 0 521.162 521.162" style="enable-background:new 0 0 521.162 521.162;" xml:space="preserve">
<g>
	<g>
		<path style="fill:#010002;" d="M371.146,306.3c-16.735-23.309-38.449-39.744-65.146-49.307V56.778l-11.354-18.527L273.728,3.587
			L271.937,0l-45.422,56.777l0.598,0.598l-7.172,7.77l19.125,25.699v25.699l-17.93,12.551v55.582l-28.688,26.896v55.582
			c-20.32,11.953-36.656,28.389-49.008,49.307s-18.527,43.729-18.527,68.435c0,37.45,13.248,69.524,39.744,96.223
			c26.496,26.696,58.471,40.043,95.924,40.043s69.429-13.348,95.924-40.043c26.496-26.695,39.744-58.771,39.744-96.223
			C396.248,355.806,387.881,329.609,371.146,306.3z M288.372,469.459c-7.77,7.771-17.033,11.654-27.791,11.654
			s-20.021-3.885-27.791-11.654c-7.77-7.769-11.654-17.033-11.654-27.791s3.885-20.021,11.654-27.791
			c7.769-7.77,17.033-11.654,27.791-11.654s20.021,3.888,27.791,11.654c7.77,7.771,11.654,17.033,11.654,27.791
			S296.142,461.689,288.372,469.459z M353.815,326.321h-0.601l0.601-0.601V326.321z"/>
	</g>
</g>
<g>
</g>
<g>
</g>
<g>
</g>
<g>
</g>
<g>
</g>
<g>
</g>
<g>
</g>
<g>
</g>
<g>
</g>
<g>
</g>
<g>
</g>
<g>
</g>
<g>
</g>
<g>
</g>
<g>
</g>
</svg>
