<?xml version="1.0" encoding="iso-8859-1"?>
<!-- Generator: Adobe Illustrator 19.0.0, SVG Export Plug-In . SVG Version: 6.00 Build 0)  -->
<svg version="1.1" id="Capa_1" xmlns="http://www.w3.org/2000/svg" xmlns:xlink="http://www.w3.org/1999/xlink" x="0px" y="0px"
	 viewBox="0 0 234 234" style="enable-background:new 0 0 234 234;" xml:space="preserve">
<g>
	<path d="M0,48v138h234V48H0z M214,148.967L183.133,166H51.53L20,148.581V85.252L51.53,68h131.603L214,84.866V148.967z"/>
	<path d="M134.02,116.713c-3.498-3.135-8.724-5.536-15.541-7.139c-5.086-1.167-7.423-2.481-8.507-3.395
		c-1.261-1.035-1.873-2.432-1.873-4.286c-0.019-2.266,0.609-3.768,2.052-4.974c1.502-1.281,3.853-1.919,6.815-1.919h0.166
		c2.636,0,3.578,0.534,4.966,1.751c1.36,1.195,2.24,3.192,2.621,6.027l0.391,2.419l12.675-0.084l-0.104-2.998
		c-0.306-5.766-2.511-10.406-6.574-13.805c-2.604-2.122-4.906-3.56-8.329-4.301l-0.032-7.478l-13.121,0.091l0.059,7.752
		c-3.096,0.818-5.855,2.225-8.22,4.189c-4.229,3.496-6.355,8.033-6.32,13.484c0.026,4.763,1.754,8.805,5.144,12.021
		c3.143,2.943,7.826,5.155,13.919,6.572c6.075,1.424,8.898,2.937,10.19,3.95c1.571,1.241,2.303,2.835,2.303,5.015
		c0,2.84-0.788,4.857-2.485,6.354c-1.768,1.57-4.393,2.38-7.787,2.407c-3.415,0-4.904-0.776-6.633-2.328
		c-1.694-1.468-2.54-3.604-2.586-6.57l-0.104-2.795l-12.622,0.045l-0.335,4.263l0.003,0.108c0.145,4.846,2.374,9.161,6.658,12.852
		c3.08,2.549,5.685,4.272,9.215,5.16l0.057,8.843l13.126-0.033l-0.065-8.837c3.828-0.899,7.123-2.56,9.794-4.932
		c4.48-3.827,6.734-8.793,6.699-14.75C139.631,124.418,137.692,120.036,134.02,116.713z"/>
	<path d="M165.438,117c0,7.812,6.354,14.167,14.166,14.167s14.167-6.355,14.167-14.167s-6.355-14.167-14.167-14.167
		S165.438,109.188,165.438,117z"/>
	<path d="M54.173,102.833c-7.812,0-14.167,6.355-14.167,14.167s6.355,14.167,14.167,14.167S68.34,124.812,68.34,117
		S61.984,102.833,54.173,102.833z"/>
</g>
<g>
</g>
<g>
</g>
<g>
</g>
<g>
</g>
<g>
</g>
<g>
</g>
<g>
</g>
<g>
</g>
<g>
</g>
<g>
</g>
<g>
</g>
<g>
</g>
<g>
</g>
<g>
</g>
<g>
</g>
</svg>
