<?xml version="1.0" encoding="iso-8859-1"?>
<!-- Generator: Adobe Illustrator 19.1.0, SVG Export Plug-In . SVG Version: 6.00 Build 0)  -->
<svg version="1.1" id="Capa_1" xmlns="http://www.w3.org/2000/svg" xmlns:xlink="http://www.w3.org/1999/xlink" x="0px" y="0px"
	 viewBox="0 0 538.261 538.261" style="enable-background:new 0 0 538.261 538.261;" xml:space="preserve">
<g>
	<path d="M535.334,140.452L397.574,2.523c-3.36-3.364-8.4-3.364-11.76,0l-269.22,269.551l0,0l0,0c0,0,0,0-0.42,0.421
		c-0.42,0.421-0.42,0.421-0.42,0.841l0,0c-0.42,0.841-0.84,1.682-1.26,2.523L1.094,526.486c-1.26,3.364-0.84,6.728,1.68,9.251
		c1.68,1.682,3.78,2.523,5.88,2.523c1.26,0,2.52-0.42,3.36-0.841l249.9-112.698c1.26-0.421,2.52-1.262,3.78-2.103
		c0.42-0.421,0.42-0.841,0.84-0.841l268.8-269.13C538.694,148.863,538.694,143.396,535.334,140.452z M254.774,409.162
		l-127.26,57.611l-55.86-55.929l57.12-126.996c9.24-8.41,23.94-8.41,33.18,0.841c9.24,9.251,9.24,23.969,0.42,33.221
		c0,0-0.42,0-0.42,0.421c-0.42,0.421-0.84,0.841-1.26,1.682c-2.1,3.364-2.1,7.99,0.84,10.513c1.68,1.682,3.78,2.523,5.88,2.523
		s4.2-0.841,5.88-2.523c0.42-0.421,0.42-0.421,0.84-0.841c4.62-4.205,10.5-6.728,16.38-6.728c6.3,0,12.6,2.523,17.22,7.149
		s7.14,10.513,7.14,17.241c0,6.308-2.52,12.616-7.14,17.241l0,0c0,0,0,0-0.42,0.421c-3.36,3.364-3.36,8.41,0,11.774
		c3.36,3.364,8.4,3.364,11.76,0c9.24-9.251,24.78-9.251,34.02,0C262.754,385.613,263.174,399.911,254.774,409.162z"/>
</g>
<g>
</g>
<g>
</g>
<g>
</g>
<g>
</g>
<g>
</g>
<g>
</g>
<g>
</g>
<g>
</g>
<g>
</g>
<g>
</g>
<g>
</g>
<g>
</g>
<g>
</g>
<g>
</g>
<g>
</g>
</svg>
