<?xml version="1.0" encoding="UTF-8" standalone="no"?>
<!-- Generator: Adobe Illustrator 18.1.1, SVG Export Plug-In . SVG Version: 6.00 Build 0)  -->

<svg
   xmlns:dc="http://purl.org/dc/elements/1.1/"
   xmlns:cc="http://creativecommons.org/ns#"
   xmlns:rdf="http://www.w3.org/1999/02/22-rdf-syntax-ns#"
   xmlns:svg="http://www.w3.org/2000/svg"
   xmlns="http://www.w3.org/2000/svg"
   xmlns:sodipodi="http://sodipodi.sourceforge.net/DTD/sodipodi-0.dtd"
   xmlns:inkscape="http://www.inkscape.org/namespaces/inkscape"
   version="1.1"
   id="Capa_1"
   x="0px"
   y="0px"
   viewBox="0 0 465.056 465.056"
   style="enable-background:new 0 0 465.056 465.056;"
   xml:space="preserve"
   inkscape:version="0.91 r13725"
   sodipodi:docname="add-phone-call.svg"><metadata
     id="metadata3470"><rdf:RDF><cc:Work
         rdf:about=""><dc:format>image/svg+xml</dc:format><dc:type
           rdf:resource="http://purl.org/dc/dcmitype/StillImage" /></cc:Work></rdf:RDF></metadata><defs
     id="defs3468" /><sodipodi:namedview
     pagecolor="#ffffff"
     bordercolor="#666666"
     borderopacity="1"
     objecttolerance="10"
     gridtolerance="10"
     guidetolerance="10"
     inkscape:pageopacity="0"
     inkscape:pageshadow="2"
     inkscape:window-width="1280"
     inkscape:window-height="1026"
     id="namedview3466"
     showgrid="false"
     inkscape:zoom="1.9158983"
     inkscape:cx="232.528"
     inkscape:cy="232.528"
     inkscape:window-x="0"
     inkscape:window-y="24"
     inkscape:window-maximized="0"
     inkscape:current-layer="g3424" /><g
     id="g3424"><g
       id="g3426"
       transform="matrix(-1,0,0,1,465.05588,0)"><g
         id="g3428"><path
           style="fill:#010002"
           d="m 455.876,373.941 -73.369,-73.425 c -5.731,-5.706 -13.689,-8.844 -22.427,-8.844 -9.202,0 -18.07,3.585 -24.337,9.86 l -39.692,39.676 -10.713,-5.942 C 261.773,322.195 229.47,304.272 195.355,270.115 161.126,235.91 143.178,203.534 130.066,179.863 l -5.861,-10.413 39.724,-39.724 c 13.16,-13.185 13.607,-34.164 1.008,-46.788 L 91.529,9.553 C 85.823,3.847 77.865,0.701 69.135,0.701 c -9.185,0 -18.07,3.601 -24.361,9.884 L 26.737,28.695 25.07,31.46 C 18.34,40.068 12.861,49.749 8.756,60.284 4.927,70.331 2.554,79.874 1.448,89.441 c -9.454,78.652 26.816,150.866 125.204,249.247 116.638,116.604 214.083,125.667 241.167,125.667 4.641,0 7.462,-0.252 8.234,-0.333 10.031,-1.211 19.59,-3.625 29.255,-7.373 10.429,-4.056 20.086,-9.51 28.653,-16.225 l 4.105,-3.227 16.867,-16.542 c 13.12,-13.143 13.543,-34.099 0.943,-46.714 z"
           id="path3430"
           inkscape:connector-curvature="0" /></g><g
         id="g3432" /></g></g><g
     id="g3436" /><g
     id="g3438" /><g
     id="g3440" /><g
     id="g3442" /><g
     id="g3444" /><g
     id="g3446" /><g
     id="g3448" /><g
     id="g3450" /><g
     id="g3452" /><g
     id="g3454" /><g
     id="g3456" /><g
     id="g3458" /><g
     id="g3460" /><g
     id="g3462" /><g
     id="g3464" /></svg>