<?xml version="1.0" encoding="iso-8859-1"?>
<!-- Generator: Adobe Illustrator 18.1.1, SVG Export Plug-In . SVG Version: 6.00 Build 0)  -->
<svg version="1.1" id="Capa_1" xmlns="http://www.w3.org/2000/svg" xmlns:xlink="http://www.w3.org/1999/xlink" x="0px" y="0px"
	 viewBox="0 0 346.078 346.078" style="enable-background:new 0 0 346.078 346.078;" xml:space="preserve">
<g>
	<rect x="119.337" y="0" style="fill:#010002;" width="107.404" height="107.404"/>
	<rect x="119.337" y="119.337" style="fill:#010002;" width="107.404" height="107.404"/>
	<rect x="0" y="0" style="fill:#010002;" width="107.404" height="107.404"/>
	<rect x="0" y="119.337" style="fill:#010002;" width="107.404" height="107.404"/>
	<rect x="0" y="238.675" style="fill:#010002;" width="107.404" height="107.404"/>
	<rect x="119.337" y="238.675" style="fill:#010002;" width="107.404" height="107.404"/>
	<rect x="238.675" y="238.675" style="fill:#010002;" width="107.404" height="107.404"/>
	<rect x="238.675" y="119.337" style="fill:#010002;" width="107.404" height="107.404"/>
	<rect x="238.675" y="0" style="fill:#010002;" width="107.404" height="107.404"/>
</g>
<g>
</g>
<g>
</g>
<g>
</g>
<g>
</g>
<g>
</g>
<g>
</g>
<g>
</g>
<g>
</g>
<g>
</g>
<g>
</g>
<g>
</g>
<g>
</g>
<g>
</g>
<g>
</g>
<g>
</g>
</svg>
