<?xml version="1.0" encoding="iso-8859-1"?>
<!-- Generator: Adobe Illustrator 16.0.0, SVG Export Plug-In . SVG Version: 6.00 Build 0)  -->
<!DOCTYPE svg PUBLIC "-//W3C//DTD SVG 1.1//EN" "http://www.w3.org/Graphics/SVG/1.1/DTD/svg11.dtd">
<svg version="1.1" id="Capa_1" xmlns="http://www.w3.org/2000/svg" xmlns:xlink="http://www.w3.org/1999/xlink" x="0px" y="0px"
	 width="612px" height="612px" viewBox="0 0 612 612" style="enable-background:new 0 0 612 612;" xml:space="preserve">
<g>
	<g>
		<path d="M364.308,491.527c16.05,0,28.999-12.902,28.999-28.977l0.427-238.223c0-16.051-12.95-29-28.953-29
			c-16.003-0.047-28.952,12.902-28.952,28.905l-0.426,238.271C335.402,478.483,348.352,491.527,364.308,491.527z"/>
		<path d="M239.005,491.29c15.956,0.048,29-12.878,29-28.834l0.332-238.365c0.047-15.932-12.902-28.929-28.905-28.929
			c-16.003-0.047-28.953,12.878-29,28.881l-0.379,238.294C210.052,478.317,222.955,491.29,239.005,491.29z"/>
		<path d="M583.095,94.077l-105.511-0.236l0.142-63.444c0-15.932-12.902-28.953-28.952-28.953l-289.5-0.45
			c-15.885,0-28.929,12.949-28.929,28.953l-0.095,63.42L28.952,93.201C12.997,93.201,0,106.174,0,122.106
			c0,16.05,12.854,29,28.857,29l50.4,0.071l-0.615,430.213c0,16.074,12.902,29.023,28.857,29.023l393.852,0.592
			c15.955,0,28.952-12.926,28.952-28.929l0.592-430.237l52.058,0.119c16.05,0,29-12.949,29.047-28.953
			C612.023,107.003,599.051,94.077,583.095,94.077z M188.178,59.018l231.595,0.284l-0.095,34.374l-231.548-0.308L188.178,59.018z
			 M472.446,553.03l-335.852-0.474l0.545-400.054l335.852,0.474L472.446,553.03z"/>
	</g>
</g>
<g>
</g>
<g>
</g>
<g>
</g>
<g>
</g>
<g>
</g>
<g>
</g>
<g>
</g>
<g>
</g>
<g>
</g>
<g>
</g>
<g>
</g>
<g>
</g>
<g>
</g>
<g>
</g>
<g>
</g>
</svg>
