<?xml version="1.0" encoding="utf-8"?>
<!-- Generated by IcoMoon.io -->
<!DOCTYPE svg PUBLIC "-//W3C//DTD SVG 1.1//EN" "http://www.w3.org/Graphics/SVG/1.1/DTD/svg11.dtd">
<svg version="1.1" xmlns="http://www.w3.org/2000/svg" xmlns:xlink="http://www.w3.org/1999/xlink" width="21" height="24" viewBox="0 0 21 24">
<path fill="#444444" d="M11.504 12.817l0.174 9.469q-0.83-0.147-1.406-0.147-0.549 0-1.406 0.147l0.174-9.469q-0.536-0.924-2.257-3.958t-2.9-5.016-2.424-3.844q0.777 0.201 1.446 0.201 0.576 0 1.487-0.201 0.844 1.487 1.788 3.074t2.237 3.703 1.855 3.040q0.496-0.817 1.467-2.377t1.574-2.545 1.406-2.357 1.433-2.538q0.723 0.188 1.433 0.188 0.75 0 1.527-0.188v0q-0.375 0.522-0.804 1.185t-0.663 1.051-0.757 1.286-0.656 1.125q-1.955 3.321-4.728 8.17z"></path>
</svg>
